{
  "project_info": {
    "project_number": "52846929843",
    "firebase_url": "https://roipal-executives.firebaseio.com",
    "project_id": "roipal-executives",
    "storage_bucket": "roipal-executives.appspot.com"
  },
  "client": [
    {
      "client_info": {
        "mobilesdk_app_id": "1:52846929843:android:ee929b3e9bf69152",
        "android_client_info": {
          "package_name": "com.roipal.executives"
        }
      },
      "oauth_client": [
        {
          "client_id": "52846929843-speigngdhl9leq6k41rg7v3mlbnb07qc.apps.googleusercontent.com",
          "client_type": 3
        }
      ],
      "api_key": [
        {
          "current_key": "AIzaSyAJZ_mlM79bjdZsuc-D2jWUbYRSyHv4J3k"
        }
      ],
      "services": {
        "analytics_service": {
          "status": 1
        },
        "appinvite_service": {
          "status": 1,
          "other_platform_oauth_client": []
        },
        "ads_service": {
          "status": 2
        }
      }
    }
  ],
  "configuration_version": "1"
}